Apply a function to list-elements of a list — lmap • purrr
…
  out <- lapply(levels(x), function(level) {
    as.numeric(x == level)
  })

  names(out) <- paste(name, levels(x), sep = sep)
  out
}

# Now, we are ready to map disjoin() on each categorical variable of a
# data frame:
iris %>% lmap_if(is.factor, disjoin)
#> # A tibble: 150 x 7
#>    Sepal.Length Sepal.Width Petal.Length Petal.Width Species_setosa
#>           <dbl>       <dbl>        <dbl>       <dbl>          <dbl>
#>  1          5.1         3.5          1.4         0.2              1
#>  2          4.9         3            1.4         0.2              1
#>  3          4.7         3.2          1.3         0.2              1
#>  4          4.6         3.1          1.5         0.2              1
#>  5          5           3.6          1.4         0.2              1
#>  6          5.4         3.9          1.7         0.4              1
#>  7          4.6         3.4          1.4         0.3              1
#>  8          5           3.4          1.5         0.2              1
#>  9          4.4         2.9          1.4         0.2              1
#> 10          4.9         3.1          1.5         0.1              1
#> # … with 140 more rows, and 2 more variables: Species_versicolor <dbl>,
#> #   Species_virginica <dbl>
mtcars %>% lmap_at(c("cyl", "vs", "am"), disjoin)
#> # A tibble: 32 x 15
#>      mpg cyl_4 cyl_6 cyl_8  disp    hp  drat    wt  qsec  vs_0  vs_1  am_0  am_1
#>    <dbl> <dbl> <dbl> <dbl> <dbl> <dbl> <dbl> <dbl> <dbl> <dbl> <dbl> <dbl> <dbl>
#>  1  21       0     1     0  160    110  3.9   2.62  16.5     1     0     0     1
#>  2  21       0     1     0  160    110  3.9   2.88  17.0     1     0     0     1
#>  3  22.8     1     0     0  108     93  3.85  2.32  18.6     0     1     0     1
#>  4  21.4     0     1     0  258    110  3.08  3.22  19.4     0     1     1     0
#>  5  18.7     0     0     1  360    175  3.15  3.44  17.0     1     0     1     0
#>  6  18.1     0     1     0  225    105  2.76  3.46  20.2     0     1     1     0
#>  7  14.3     0     0     1  360    245  3.21  3.57  15.8     1     0     1     0
#>  8  24.4     1     0     0  147.    62  3.69  3.19  20       0     1     1     0
#>  9  22.8     1     0     0  141.    95  3.92  3.15  22.9     0     1     1     0
#> 10  19.2     0     1     0  168.   123  3.92  3.44  18.3     0     1     1     0
#> # … with 22 more rows, and 2 more variables: gear <dbl>, carb <dbl>
…
