Apply a function to list-elements of a list — lmap • purrr
…
  out <- lapply(levels(x), function(level) {
    as.numeric(x == level)
  })

  names(out) <- paste(name, levels(x), sep = sep)
  tibble::as_tibble(out)
}

# Now, we are ready to map disjoin() on each categorical variable of a
# data frame:
iris %>% lmap_if(is.factor, disjoin)
#> # A tibble: 150 × 7
#>    Sepal.Length Sepal.Width Petal.Length Petal.Width Species_setosa
#>           <dbl>       <dbl>        <dbl>       <dbl>          <dbl>
#> 1           5.1         3.5          1.4         0.2              1
#> 2           4.9         3.0          1.4         0.2              1
#> 3           4.7         3.2          1.3         0.2              1
#> 4           4.6         3.1          1.5         0.2              1
#> 5           5.0         3.6          1.4         0.2              1
#> 6           5.4         3.9          1.7         0.4              1
#> 7           4.6         3.4          1.4         0.3              1
#> 8           5.0         3.4          1.5         0.2              1
#> 9           4.4         2.9          1.4         0.2              1
#> 10          4.9         3.1          1.5         0.1              1
#> # ... with 140 more rows, and 2 more variables: Species_versicolor <dbl>,
#> #   Species_virginica <dbl>
mtcars %>% lmap_at(c("cyl", "vs", "am"), disjoin)
#> # A tibble: 32 × 15
#>      mpg cyl_4 cyl_6 cyl_8  disp    hp  drat    wt  qsec  vs_0  vs_1  am_0
#>    <dbl> <dbl> <dbl> <dbl> <dbl> <dbl> <dbl> <dbl> <dbl> <dbl> <dbl> <dbl>
#> 1   21.0     0     1     0 160.0   110  3.90 2.620 16.46     1     0     0
#> 2   21.0     0     1     0 160.0   110  3.90 2.875 17.02     1     0     0
#> 3   22.8     1     0     0 108.0    93  3.85 2.320 18.61     0     1     0
#> 4   21.4     0     1     0 258.0   110  3.08 3.215 19.44     0     1     1
#> 5   18.7     0     0     1 360.0   175  3.15 3.440 17.02     1     0     1
#> 6   18.1     0     1     0 225.0   105  2.76 3.460 20.22     0     1     1
#> 7   14.3     0     0     1 360.0   245  3.21 3.570 15.84     1     0     1
#> 8   24.4     1     0     0 146.7    62  3.69 3.190 20.00     0     1     1
#> 9   22.8     1     0     0 140.8    95  3.92 3.150 22.90     0     1     1
#> 10  19.2     0     1     0 167.6   123  3.92 3.440 18.30     0     1     1
#> # ... with 22 more rows, and 3 more variables: am_1 <dbl>, gear <dbl>,
#> #   carb <dbl>
…
